<svg width="24" height="24" viewBox="0 0 24 24" fill="none" xmlns="http://www.w3.org/2000/svg">
<g opacity="0.6">
<path fill-rule="evenodd" clip-rule="evenodd" d="M8.59003 7.41L13.17 12L8.59003 16.59L10 18L16 12L10 6L8.59003 7.41Z" fill="#1E1E1E"/>
</g>
</svg>
