<svg width="85" height="29" viewBox="0 0 85 29" fill="none" xmlns="http://www.w3.org/2000/svg">
<g opacity="0.7">
<path d="M17.7366 10.8596C18.6339 10.8596 19.3613 10.1312 19.3613 9.23258C19.3613 8.33395 18.6339 7.60547 17.7366 7.60547C16.8392 7.60547 16.1118 8.33395 16.1118 9.23258C16.1118 10.1312 16.8392 10.8596 17.7366 10.8596Z" fill="white"/>
<path d="M4.33409 22.9243C4.50935 23.0255 4.63706 23.1919 4.68915 23.3869C4.74124 23.5819 4.71345 23.7894 4.61188 23.964L5.02963 23.2528C5.13304 23.0831 5.29908 22.9605 5.49217 22.9114C5.68526 22.8621 5.89005 22.8901 6.06266 22.9893C6.23527 23.0886 6.36198 23.2512 6.41563 23.4423C6.46927 23.6334 6.44561 23.8379 6.34969 24.0118L6.84474 23.1593C6.94814 22.9896 7.11418 22.867 7.30728 22.8178C7.50031 22.7685 7.70516 22.7965 7.87772 22.8958C8.05034 22.995 8.17703 23.1576 8.23068 23.3487C8.28439 23.5398 8.26069 23.7443 8.16475 23.9182L8.65978 23.0657C8.76828 22.9085 8.93237 22.7979 9.11923 22.7559C9.30608 22.7139 9.502 22.7437 9.66771 22.8394C9.83348 22.935 9.95682 23.0894 10.0132 23.2717C10.0695 23.454 10.0546 23.6507 9.97152 23.8226L9.47857 24.6752C9.58197 24.5055 9.74801 24.3829 9.94111 24.3337C10.1342 24.2844 10.339 24.3124 10.5116 24.4117C10.6842 24.5109 10.8109 24.6735 10.8646 24.8647C10.9182 25.0558 10.8945 25.2602 10.7986 25.4342L10.3036 26.2867C10.3525 26.1982 10.4186 26.1201 10.4981 26.0574C10.5776 25.9945 10.6689 25.9482 10.7667 25.921C10.8645 25.8938 10.9667 25.8863 11.0674 25.899C11.1681 25.9117 11.2653 25.9442 11.3532 25.9947C11.4411 26.0453 11.518 26.1128 11.5793 26.1933C11.6407 26.2738 11.6852 26.3657 11.7104 26.4636C11.7356 26.5615 11.7409 26.6635 11.7261 26.7634C11.7112 26.8634 11.6763 26.9594 11.6237 27.0457L11.2059 27.7548C11.3093 27.5852 11.4754 27.4627 11.6685 27.4134C11.8616 27.3641 12.0663 27.3921 12.239 27.4913C12.4116 27.5906 12.5383 27.7532 12.5919 27.9443C12.6456 28.1354 12.6219 28.3399 12.526 28.5138L12.338 28.8382C15.6753 29.3392 19.0835 28.6654 21.9753 26.9332C24.8671 25.2009 27.0615 22.3903 28.18 19.2202C29.2986 16.05 29.2714 12.5907 28.1031 9.43849C26.9348 6.2862 24.6986 3.63841 21.7798 1.95141C18.8611 0.264414 15.4427 -0.356095 12.1137 0.196822C8.7848 0.74974 5.75386 2.44144 3.54328 4.98039C1.3327 7.51932 0.0809593 10.7464 0.00379332 14.1056C-0.0733729 17.4648 1.02886 20.8738 3.12055 23.5107L3.30017 23.2009C3.40183 23.0291 3.56706 22.904 3.76038 22.8523C3.95371 22.8006 4.15969 22.8264 4.33409 22.9243ZM5.53927 14.4804C6.39146 13.0373 7.9413 12.2596 8.42586 12.5382C8.8749 12.794 8.99401 14.2933 8.35274 15.6699L10.7255 15.462C10.8195 15.2082 10.9198 14.942 11.0263 14.6592C11.5359 13.3097 12.0122 12.2367 12.3756 11.4714C12.5704 11.0301 12.8332 10.5102 13.0753 10.0928C15.5254 5.93384 19.5819 3.37079 20.714 4.01334C21.8461 4.65589 21.6578 9.45647 19.2558 13.6465C19.2496 13.6581 19.2426 13.6692 19.2349 13.6798C19.2281 13.6948 19.2204 13.7094 19.2119 13.7235C18.9705 14.1409 18.7055 14.5442 18.4183 14.9317C17.9504 15.6366 17.2444 16.5932 16.3253 17.6994C16.0733 18.0072 15.8359 18.2928 15.6131 18.5562L16.4214 20.6671C17.2966 19.434 18.6501 18.7956 19.0971 19.0492C19.5795 19.3279 19.6819 21.056 18.8506 22.5116V22.5241V22.5386C18.7661 22.6834 18.6719 22.8223 18.5686 22.9545C18.3329 23.281 17.8104 23.8944 17.8104 23.8944C17.8104 23.8944 16.9875 24.7823 16.7536 25.0132C16.4214 25.3409 16.3854 25.2322 16.1828 25.1157L15.8592 24.9215L15.665 24.7921L15.3413 24.5979C15.1554 24.4773 15.0032 24.433 15.1013 24.0628C15.1849 23.7468 15.3102 23.2976 15.5463 22.5926C15.611 22.4034 15.6737 22.2287 15.7342 22.0707L15.2329 21.0206L14.7317 19.5855C14.2053 20.1885 13.7876 20.6502 13.4471 21.0203C12.7578 21.771 12.4989 21.5776 12.0811 21.3281L11.5798 21.744C11.5278 21.7953 11.4609 21.829 11.3886 21.8406C11.3164 21.8522 11.2422 21.8409 11.1767 21.8084L10.0279 21.1493C9.96709 21.1086 9.92036 21.0502 9.89418 20.982C9.86799 20.9139 9.86363 20.8394 9.88169 20.7687L9.99657 20.1282C9.60178 19.8871 9.27386 19.7685 9.57881 18.8057C9.74593 18.2754 9.96313 17.6121 10.2681 16.7408L7.47547 16.9779C7.37107 17.1027 7.25619 17.2399 7.12875 17.3938C6.63375 17.949 6.30583 18.2817 6.07189 18.5125C5.79827 18.7829 5.68965 18.6706 5.48497 18.5541L5.17166 18.3732L5.00456 18.2775L4.67664 18.0883C4.48865 17.9677 4.31946 17.9323 4.41973 17.5622C4.50327 17.2461 4.6286 16.7948 4.86462 16.092C4.99022 15.7094 5.13665 15.3338 5.30325 14.967C5.36627 14.8109 5.44025 14.6594 5.52465 14.5137V14.4991L5.53927 14.4804Z" fill="white"/>
<path d="M38.813 15.1467L36.0787 10.7657H34.8204V15.1467H33.0493V4.1786H36.9177C38.1709 4.1786 39.1185 4.48413 39.7607 5.09519C40.4131 5.70626 40.7394 6.5141 40.7394 7.51873C40.7394 8.37836 40.496 9.08264 40.0092 9.63156C39.5328 10.1805 38.8389 10.5326 37.9275 10.688L40.8015 15.1467H38.813ZM34.8204 9.50728H36.7778C38.2071 9.50728 38.9217 8.8755 38.9217 7.61194C38.9217 7.01124 38.7457 6.54517 38.3935 6.21375C38.0517 5.87197 37.5132 5.70108 36.7778 5.70108H34.8204V9.50728Z" fill="white"/>
<path d="M46.2492 6.47785C47.0777 6.47785 47.8234 6.65392 48.4863 7.00606C49.1491 7.3582 49.667 7.86569 50.0398 8.52854C50.4127 9.19139 50.5991 9.96816 50.5991 10.8589C50.5991 11.7599 50.4127 12.5419 50.0398 13.2047C49.667 13.8676 49.1491 14.3751 48.4863 14.7272C47.8234 15.0793 47.0777 15.2554 46.2492 15.2554C45.4206 15.2554 44.6749 15.0793 44.012 14.7272C43.3595 14.3751 42.8417 13.8676 42.4585 13.2047C42.0856 12.5315 41.8992 11.7496 41.8992 10.8589C41.8992 9.96816 42.0856 9.19139 42.4585 8.52854C42.8417 7.86569 43.3595 7.3582 44.012 7.00606C44.6749 6.65392 45.4206 6.47785 46.2492 6.47785ZM46.2492 8.01587C45.7934 8.01587 45.374 8.11944 44.9908 8.32658C44.6076 8.53372 44.2969 8.85478 44.0586 9.28978C43.8308 9.71442 43.7169 10.2374 43.7169 10.8589C43.7169 11.4906 43.8308 12.0188 44.0586 12.4435C44.2969 12.8681 44.6076 13.184 44.9908 13.3912C45.374 13.5983 45.7934 13.7019 46.2492 13.7019C46.7049 13.7019 47.1243 13.5983 47.5075 13.3912C47.8907 13.184 48.1963 12.8681 48.4241 12.4435C48.6623 12.0188 48.7814 11.4906 48.7814 10.8589C48.7814 10.2374 48.6623 9.71442 48.4241 9.28978C48.1963 8.85478 47.8907 8.53372 47.5075 8.32658C47.1243 8.11944 46.7049 8.01587 46.2492 8.01587Z" fill="white"/>
<path d="M56.108 6.47785C57.2162 6.47785 58.1328 6.77303 58.8578 7.36338C59.5828 7.94337 60.0333 8.73568 60.2094 9.74031H58.3296C58.226 9.20174 57.9723 8.78229 57.5683 8.48193C57.1748 8.17122 56.6776 8.01587 56.0769 8.01587C55.3934 8.01587 54.8237 8.25926 54.368 8.74604C53.9123 9.22246 53.6845 9.92673 53.6845 10.8589C53.6845 11.791 53.9123 12.5004 54.368 12.9872C54.8237 13.474 55.3934 13.7174 56.0769 13.7174C56.6776 13.7174 57.1748 13.562 57.5683 13.2513C57.9723 12.9406 58.226 12.516 58.3296 11.9774H60.2094C60.0333 12.982 59.5828 13.7795 58.8578 14.3699C58.1328 14.9602 57.2162 15.2554 56.108 15.2554C55.2794 15.2554 54.5441 15.0793 53.902 14.7272C53.2702 14.3751 52.7731 13.8676 52.4106 13.2047C52.0481 12.5419 51.8668 11.7599 51.8668 10.8589C51.8668 9.96816 52.0481 9.19139 52.4106 8.52854C52.7731 7.86569 53.2702 7.3582 53.902 7.00606C54.5441 6.65392 55.2794 6.47785 56.108 6.47785Z" fill="white"/>
<path d="M66.7675 15.1467L63.6915 11.3405V15.1467H61.9205V3.65039H63.6915V10.2374L66.7365 6.5866H68.8648L65.1363 10.8433L68.9581 15.1467H66.7675Z" fill="white"/>
<path d="M78.0672 10.4549C78.0672 10.7449 78.0465 10.9987 78.0051 11.2162H71.418C71.4491 12.0965 71.6925 12.749 72.1482 13.1737C72.6039 13.5983 73.1683 13.8106 73.8415 13.8106C74.4319 13.8106 74.929 13.6604 75.333 13.3601C75.7472 13.0597 76.001 12.661 76.0942 12.1638H77.9895C77.8756 12.7646 77.6374 13.2979 77.2749 13.764C76.9124 14.2301 76.4411 14.5977 75.8612 14.867C75.2812 15.1259 74.6339 15.2554 73.9192 15.2554C73.0907 15.2554 72.3553 15.0793 71.7132 14.7272C71.0814 14.3751 70.5843 13.8676 70.2218 13.2047C69.8593 12.5419 69.678 11.7599 69.678 10.8589C69.678 9.96816 69.8593 9.19139 70.2218 8.52854C70.5843 7.86569 71.0814 7.3582 71.7132 7.00606C72.3553 6.65392 73.0907 6.47785 73.9192 6.47785C74.7581 6.47785 75.4883 6.65392 76.1097 7.00606C76.7415 7.34784 77.2231 7.82426 77.5545 8.43533C77.8963 9.03603 78.0672 9.70924 78.0672 10.4549ZM76.2806 10.4083C76.3013 9.84906 76.2029 9.38299 75.9854 9.01014C75.7783 8.62693 75.4883 8.34729 75.1155 8.17122C74.753 7.9848 74.3542 7.89158 73.9192 7.89158C73.2253 7.89158 72.6453 8.1039 72.1792 8.52854C71.7132 8.95318 71.4594 9.57977 71.418 10.4083H76.2806Z" fill="white"/>
<path d="M84.0805 13.6086V15.1467H82.993C82.0816 15.1467 81.3877 14.9292 80.9113 14.4942C80.4452 14.0488 80.2122 13.3135 80.2122 12.2881V8.09354H78.9849V6.5866H80.2122V4.45824H81.9988V6.5866H84.065V8.09354H81.9988V12.3192C81.9988 12.806 82.0868 13.1426 82.2629 13.329C82.4493 13.5154 82.7704 13.6086 83.2261 13.6086H84.0805Z" fill="white"/>
<path d="M35.9012 18.915C36.6463 18.915 37.2623 19.112 37.7495 19.506C38.2437 19.9 38.5446 20.423 38.6521 21.0749H37.8677C37.7889 20.6092 37.5704 20.2439 37.2122 19.9788C36.854 19.7066 36.4134 19.5705 35.8905 19.5705C35.5108 19.5705 35.1598 19.6565 34.8375 19.8284C34.5223 20.0003 34.2679 20.2654 34.0745 20.6236C33.8883 20.9746 33.7951 21.408 33.7951 21.9238C33.7951 22.4395 33.8883 22.8765 34.0745 23.2347C34.2679 23.5857 34.5223 23.8472 34.8375 24.0191C35.1598 24.191 35.5108 24.277 35.8905 24.277C36.4134 24.277 36.854 24.1445 37.2122 23.8794C37.5704 23.6072 37.7889 23.2383 37.8677 22.7726H38.6521C38.5446 23.4245 38.2437 23.9475 37.7495 24.3415C37.2623 24.7355 36.6463 24.9325 35.9012 24.9325C35.3425 24.9325 34.8446 24.8143 34.4076 24.5779C33.9778 24.3343 33.6411 23.9869 33.3976 23.5356C33.154 23.0771 33.0322 22.5398 33.0322 21.9238C33.0322 21.3077 33.154 20.774 33.3976 20.3227C33.6411 19.8642 33.9778 19.5168 34.4076 19.2804C34.8446 19.0368 35.3425 18.915 35.9012 18.915Z" fill="white"/>
<path d="M42.6606 18.915C43.2194 18.915 43.7172 19.0368 44.1542 19.2804C44.5984 19.5168 44.9458 19.8642 45.1965 20.3227C45.4472 20.774 45.5726 21.3077 45.5726 21.9238C45.5726 22.5398 45.4472 23.0735 45.1965 23.5248C44.9458 23.9761 44.5984 24.3236 44.1542 24.5671C43.7172 24.8107 43.2194 24.9325 42.6606 24.9325C42.1018 24.9325 41.6004 24.8107 41.1562 24.5671C40.7121 24.3236 40.3611 23.9761 40.1032 23.5248C39.8525 23.0664 39.7271 22.5327 39.7271 21.9238C39.7271 21.3077 39.8525 20.774 40.1032 20.3227C40.3611 19.8642 40.7121 19.5168 41.1562 19.2804C41.6004 19.0368 42.1018 18.915 42.6606 18.915ZM42.6606 19.5705C42.2738 19.5705 41.9156 19.6565 41.5861 19.8284C41.2565 20.0003 40.9915 20.2654 40.7909 20.6236C40.5903 20.9746 40.49 21.408 40.49 21.9238C40.49 22.4395 40.5903 22.8729 40.7909 23.224C40.9915 23.575 41.2565 23.8364 41.5861 24.0084C41.9156 24.1803 42.2738 24.2663 42.6606 24.2663C43.0403 24.2663 43.3913 24.1803 43.7136 24.0084C44.0432 23.8364 44.3082 23.575 44.5088 23.224C44.7094 22.8729 44.8097 22.4395 44.8097 21.9238C44.8097 21.408 44.7094 20.9746 44.5088 20.6236C44.3082 20.2654 44.0432 20.0003 43.7136 19.8284C43.3913 19.6565 43.0403 19.5705 42.6606 19.5705Z" fill="white"/>
<path d="M54.0459 18.8828C54.7193 18.8828 55.2637 19.1013 55.6792 19.5383C56.1019 19.9681 56.3132 20.6021 56.3132 21.4402V24.8572H55.561V21.4939C55.561 20.8635 55.407 20.38 55.099 20.0433C54.7981 19.7066 54.3826 19.5383 53.8525 19.5383C53.2866 19.5383 52.8353 19.7245 52.4986 20.097C52.1619 20.4695 51.9936 21.0176 51.9936 21.7411V24.8572H51.2521V21.4939C51.2521 20.8635 51.0981 20.38 50.7901 20.0433C50.4892 19.7066 50.0737 19.5383 49.5436 19.5383C48.9777 19.5383 48.5264 19.7245 48.1897 20.097C47.853 20.4695 47.6847 21.0176 47.6847 21.7411V24.8572H46.9217V18.9903H47.6847V20.3872C47.8279 19.8929 48.0858 19.5204 48.4583 19.2696C48.838 19.0118 49.275 18.8828 49.7693 18.8828C50.285 18.8828 50.7292 19.0189 51.1017 19.2911C51.4742 19.5634 51.7321 19.9645 51.8754 20.4946C52.033 19.9717 52.3088 19.5741 52.7028 19.3019C53.0968 19.0225 53.5445 18.8828 54.0459 18.8828Z" fill="white"/>
<path d="M61.0356 18.915C61.5729 18.915 62.0457 19.0368 62.454 19.2804C62.8695 19.5168 63.1919 19.8642 63.4211 20.3227C63.6575 20.774 63.7757 21.3077 63.7757 21.9238C63.7757 22.5327 63.6575 23.0664 63.4211 23.5248C63.1919 23.9761 62.8695 24.3236 62.454 24.5671C62.0385 24.8107 61.5657 24.9325 61.0356 24.9325C60.4339 24.9325 59.9253 24.7785 59.5098 24.4704C59.0943 24.1624 58.8078 23.7541 58.6502 23.2454V27.6296H57.898V18.9903H58.6502V20.6021C58.8078 20.0935 59.0943 19.6851 59.5098 19.3771C59.9253 19.0691 60.4339 18.915 61.0356 18.915ZM60.8315 19.5813C60.416 19.5813 60.0399 19.678 59.7032 19.8714C59.3737 20.0648 59.1158 20.3406 58.9295 20.6988C58.7433 21.0498 58.6502 21.4581 58.6502 21.9238C58.6502 22.3894 58.7433 22.8013 58.9295 23.1595C59.1158 23.5105 59.3737 23.7827 59.7032 23.9761C60.0399 24.1695 60.416 24.2663 60.8315 24.2663C61.4977 24.2663 62.0278 24.0585 62.4218 23.643C62.8158 23.2204 63.0128 22.6473 63.0128 21.9238C63.0128 21.2002 62.8158 20.6307 62.4218 20.2152C62.0278 19.7926 61.4977 19.5813 60.8315 19.5813Z" fill="white"/>
<path d="M67.5995 18.915C68.194 18.915 68.6991 19.0691 69.1146 19.3771C69.5372 19.6851 69.8273 20.0935 69.9849 20.6021V18.9903H70.7264V24.8572H69.9849V23.2454C69.8273 23.7541 69.5372 24.1624 69.1146 24.4704C68.6991 24.7785 68.194 24.9325 67.5995 24.9325C67.0694 24.9325 66.593 24.8107 66.1703 24.5671C65.7548 24.3236 65.4289 23.9761 65.1925 23.5248C64.9633 23.0664 64.8486 22.5327 64.8486 21.9238C64.8486 21.3077 64.9633 20.774 65.1925 20.3227C65.4289 19.8642 65.7548 19.5168 66.1703 19.2804C66.5858 19.0368 67.0622 18.915 67.5995 18.915ZM67.7929 19.5813C67.1338 19.5813 66.6037 19.7926 66.2026 20.2152C65.8086 20.6307 65.6116 21.2002 65.6116 21.9238C65.6116 22.6473 65.8086 23.2204 66.2026 23.643C66.6037 24.0585 67.1338 24.2663 67.7929 24.2663C68.2084 24.2663 68.5809 24.1695 68.9104 23.9761C69.2471 23.7827 69.5086 23.5105 69.6948 23.1595C69.8882 22.8013 69.9849 22.3894 69.9849 21.9238C69.9849 21.4581 69.8882 21.0498 69.6948 20.6988C69.5086 20.3406 69.2471 20.0648 68.9104 19.8714C68.5809 19.678 68.2084 19.5813 67.7929 19.5813Z" fill="white"/>
<path d="M75.2916 18.8828C75.9721 18.8828 76.5237 19.1013 76.9464 19.5383C77.3762 19.9681 77.5911 20.6021 77.5911 21.4402V24.8572H76.8497V21.4939C76.8497 20.8564 76.6885 20.3693 76.3661 20.0326C76.0438 19.6887 75.6032 19.5168 75.0444 19.5168C74.457 19.5168 73.9878 19.7066 73.6368 20.0863C73.2929 20.4588 73.121 21.0104 73.121 21.7411V24.8572H72.3581V18.9903H73.121V20.4301C73.2714 19.9287 73.5437 19.5454 73.9377 19.2804C74.3317 19.0153 74.783 18.8828 75.2916 18.8828Z" fill="white"/>
<path d="M79.3401 18.9903L81.3817 23.8794L83.2621 18.9903H84.1003L80.651 27.6296H79.7914L80.9734 24.7928L78.5019 18.9903H79.3401Z" fill="white"/>
</g>
</svg>
