<svg width="28" height="28" viewBox="0 0 28 28" fill="none" xmlns="http://www.w3.org/2000/svg">
    <path d="M9.0987 2.33325H18.8987C22.632 2.33325 25.6654 5.36659 25.6654 9.09992V18.8999C25.6654 20.6946 24.9525 22.4157 23.6835 23.6847C22.4145 24.9537 20.6933 25.6666 18.8987 25.6666H9.0987C5.36537 25.6666 2.33203 22.6333 2.33203 18.8999V9.09992C2.33203 7.30529 3.04495 5.58416 4.31394 4.31516C5.58294 3.04617 7.30407 2.33325 9.0987 2.33325ZM8.86537 4.66659C7.75146 4.66659 6.68317 5.10908 5.89552 5.89674C5.10786 6.68439 4.66536 7.75268 4.66536 8.86659V19.1333C4.66536 21.4549 6.5437 23.3333 8.86537 23.3333H19.132C20.2459 23.3333 21.3142 22.8908 22.1019 22.1031C22.8895 21.3155 23.332 20.2472 23.332 19.1333V8.86659C23.332 6.54492 21.4537 4.66659 19.132 4.66659H8.86537ZM20.1237 6.41659C20.5105 6.41659 20.8814 6.57023 21.1549 6.84372C21.4284 7.11721 21.582 7.48814 21.582 7.87492C21.582 8.26169 21.4284 8.63263 21.1549 8.90612C20.8814 9.17961 20.5105 9.33325 20.1237 9.33325C19.7369 9.33325 19.366 9.17961 19.0925 8.90612C18.819 8.63263 18.6654 8.26169 18.6654 7.87492C18.6654 7.48814 18.819 7.11721 19.0925 6.84372C19.366 6.57023 19.7369 6.41659 20.1237 6.41659ZM13.9987 8.16659C15.5458 8.16659 17.0295 8.78117 18.1235 9.87513C19.2175 10.9691 19.832 12.4528 19.832 13.9999C19.832 15.547 19.2175 17.0307 18.1235 18.1247C17.0295 19.2187 15.5458 19.8333 13.9987 19.8333C12.4516 19.8333 10.9679 19.2187 9.87391 18.1247C8.77995 17.0307 8.16537 15.547 8.16537 13.9999C8.16537 12.4528 8.77995 10.9691 9.87391 9.87513C10.9679 8.78117 12.4516 8.16659 13.9987 8.16659ZM13.9987 10.4999C13.0704 10.4999 12.1802 10.8687 11.5238 11.525C10.8674 12.1814 10.4987 13.0717 10.4987 13.9999C10.4987 14.9282 10.8674 15.8184 11.5238 16.4748C12.1802 17.1312 13.0704 17.4999 13.9987 17.4999C14.927 17.4999 15.8172 17.1312 16.4736 16.4748C17.13 15.8184 17.4987 14.9282 17.4987 13.9999C17.4987 13.0717 17.13 12.1814 16.4736 11.525C15.8172 10.8687 14.927 10.4999 13.9987 10.4999Z"
          fill="currentColor"/>
</svg>
